{
  "deliveries": [
    {
      "sender": "Константин Александрович, +7 863 722-24-24, м. Динамо. ул. Верхняя Масловка, 25 корпус 1, Москва",
      "recipient": "Анастасия Романова, +7 921 242-24-42, м. Динамо. ул. Верхняя Масловка, 25 корпус 1, Москва",
      "description": {
        "status": "Курьер у отправителя",
        "name": "Счет-фактуры контрагентам",
        "information": {
          "number": "336 838",
          "date": "20 июня 2018",
          "time": "20:50"
        }
      },
      "weight": 2,
      "price": 840,
      "otherDeliveries": [
        {
          "sender": null,
          "recipient": "Анастасия Романова, +7 921 242-24-42, м. Динамо. ул. Верхняя Масловка, 25 корпус 1, Москва",
          "description": {
            "status": "Курьер у отправителя",
            "name": "Счет-фактуры контрагентам",
            "information": {
              "number": "336 838",
              "date": "20 июня 2018",
              "time": "20:50"
            }
          },
          "weight": 2,
          "price": 840,
          "otherDeliveries": null
        },
        {
          "sender": null,
          "recipient": "Анастасия Романова, +7 921 242-24-42, м. Динамо. ул. Верхняя Масловка, 25 корпус 1, Москва",
          "description": {
            "status": "Курьер у отправителя",
            "name": "Счет-фактуры контрагентам",
            "information": {
              "number": "336 838",
              "date": "20 июня 2018",
              "time": "20:50"
            }
          },
          "weight": 2,
          "price": 840,
          "otherDeliveries": null
        }
      ]
    },
    {
      "sender": "Отправитель: Константин Александрович, +7 863 722-24-24, м. Динамо. ул. Верхняя Масловка, 25 корпус 1, Москва",
      "recipient": "Анастасия Романова, +7 921 242-24-42, м. Динамо. ул. Верхняя Масловка, 25 корпус 1, Москва",
      "description": {
        "status": "Курьер у отправителя",
        "name": "Тойота курьер",
        "information": {
          "number": "336 838",
          "date": "20 июня 2018",
          "time": "20:50"
        }
      },
      "weight": 2,
      "price": 840,
      "otherDeliveries": null
    },
    {
      "sender": "Отправитель: Константин Александрович, +7 863 722-24-24, м. Динамо. ул. Верхняя Масловка, 25 корпус 1, Москва",
      "recipient": "Анастасия Романова, +7 921 242-24-42, м. Динамо. ул. Верхняя Масловка, 25 корпус 1, Москва",
      "description": {
        "status": "Курьер у отправителя",
        "name": "Тойота курьер",
        "information": {
          "number": "336 838",
          "date": "20 июня 2018",
          "time": "20:50"
        }
      },
      "weight": 2,
      "price": 840,
      "otherDeliveries": null
    },
    {
      "sender": "Отправитель: Константин Александрович, +7 863 722-24-24, м. Динамо. ул. Верхняя Масловка, 25 корпус 1, Москва",
      "recipient": "Анастасия Романова, +7 921 242-24-42, м. Динамо. ул. Верхняя Масловка, 25 корпус 1, Москва",
      "description": {
        "status": "Курьер у отправителя",
        "name": "Счет-фактуры контрагентам",
        "information": {
          "number": "336 838",
          "date": "20 июня 2018",
          "time": "20:50"
        }
      },
      "weight": 2,
      "price": 840,
      "otherDeliveries": null
    }
  ]
}
